{
	"info": {
		"_postman_id": "56e5cd52-52c4-47bd-8775-ea38fde2ec3b",
		"name": "ParsPack",
		"schema": "https://schema.getpostman.com/json/collection/v2.1.0/collection.json"
	},
	"item": [
		{
			"name": "Auth",
			"item": [
				{
					"name": "Login",
					"request": {
						"method": "POST",
						"header": [
							{
								"key": "Content-Type",
								"value": "application/json",
								"type": "text"
							},
							{
								"key": "Accept",
								"value": "application/json",
								"type": "text"
							},
							{
								"key": "Content-Type",
								"value": "application/json",
								"type": "text"
							},
							{
								"key": "Accept",
								"value": "application/json",
								"type": "text"
							}
						],
						"body": {
							"mode": "formdata",
							"formdata": [
								{
									"key": "username",
									"value": "mr.roustana@gmail.com",
									"type": "text"
								},
								{
									"key": "username",
									"value": "mmrdev",
									"type": "text",
									"disabled": true
								},
								{
									"key": "password",
									"value": "123123",
									"type": "text"
								}
							]
						},
						"url": {
							"raw": "{{host}}/api/user/login",
							"host": [
								"{{host}}"
							],
							"path": [
								"api",
								"user",
								"login"
							]
						}
					},
					"response": []
				},
				{
					"name": "Register",
					"request": {
						"method": "POST",
						"header": [
							{
								"key": "Content-Type",
								"value": "application/json",
								"type": "text"
							},
							{
								"key": "Accept",
								"value": "application/json",
								"type": "text"
							},
							{
								"key": "Content-Type",
								"value": "application/json",
								"type": "text"
							},
							{
								"key": "Accept",
								"value": "application/json",
								"type": "text"
							}
						],
						"body": {
							"mode": "formdata",
							"formdata": [
								{
									"key": "first_name",
									"value": "Mohammadreza",
									"type": "text"
								},
								{
									"key": "last_name",
									"value": "Roustana",
									"type": "text"
								},
								{
									"key": "email",
									"value": "info@parspack.com",
									"type": "text"
								},
								{
									"key": "mobile",
									"value": "09121111111",
									"type": "text"
								},
								{
									"key": "password",
									"value": "123123123",
									"type": "text"
								},
								{
									"key": "username",
									"value": "parsPack",
									"type": "text"
								}
							]
						},
						"url": {
							"raw": "{{host}}/api/user/register",
							"host": [
								"{{host}}"
							],
							"path": [
								"api",
								"user",
								"register"
							]
						}
					},
					"response": []
				},
				{
					"name": "LogOut",
					"protocolProfileBehavior": {
						"disableBodyPruning": true
					},
					"request": {
						"method": "GET",
						"header": [
							{
								"key": "Content-Type",
								"value": "application/json",
								"type": "text"
							},
							{
								"key": "Accept",
								"value": "application/json",
								"type": "text"
							},
							{
								"key": "Content-Type",
								"value": "application/json",
								"type": "text"
							},
							{
								"key": "Accept",
								"value": "application/json",
								"type": "text"
							}
						],
						"body": {
							"mode": "raw",
							"raw": ""
						},
						"url": {
							"raw": "{{host}}/api/user/profile",
							"host": [
								"{{host}}"
							],
							"path": [
								"api",
								"user",
								"profile"
							]
						}
					},
					"response": []
				}
			]
		},
		{
			"name": "User",
			"item": [
				{
					"name": "User Profile",
					"protocolProfileBehavior": {
						"disableBodyPruning": true
					},
					"request": {
						"method": "GET",
						"header": [
							{
								"key": "Content-Type",
								"value": "application/json",
								"type": "text"
							},
							{
								"key": "Accept",
								"value": "application/json",
								"type": "text"
							},
							{
								"key": "Content-Type",
								"value": "application/json",
								"type": "text"
							},
							{
								"key": "Accept",
								"value": "application/json",
								"type": "text"
							}
						],
						"body": {
							"mode": "raw",
							"raw": ""
						},
						"url": {
							"raw": "{{host}}/api/user/profile",
							"host": [
								"{{host}}"
							],
							"path": [
								"api",
								"user",
								"profile"
							]
						}
					},
					"response": []
				}
			]
		},
		{
			"name": "Os",
			"item": [
				{
					"name": "Os Process",
					"protocolProfileBehavior": {
						"disableBodyPruning": true
					},
					"request": {
						"auth": {
							"type": "bearer",
							"bearer": [
								{
									"key": "token",
									"value": "eyJ0eXAiOiJKV1QiLCJhbGciOiJSUzI1NiJ9.eyJhdWQiOiI5M2FiZTEyOS1lOTE2LTRiMTctODgyYS01MzFhZWZmMTY4Y2YiLCJqdGkiOiI1OWIyNGM2OGFlNGJiOWI1Zjk1OTgzYjUwZjA3ZDg1ZTI2ODU0YjUyYjdmYjJmYmU4MTRiM2Q5NzRlYTRjMTMyMDg0ZGViYTI5ZDQxOTAzNCIsImlhdCI6MTYyMzY2NDgyMi42NDEwMDQsIm5iZiI6MTYyMzY2NDgyMi42NDEwMSwiZXhwIjoxNjM5NDc2MDIyLjQ3MTE5Miwic3ViIjoiMSIsInNjb3BlcyI6WyJjcmVhdGUiLCJ1cGRhdGUiLCJzaG93IiwiZGVsZXRlIl19.TtqybEznyN3s310496RzthUA7kSY0TadIcgKSr8hoBFaF1pPGZnH21zBd7KWAq7hmkASmaujtlbCJ872IjFVKUcWlxM257r1CwFZYqsPnjUnlB-I-zB7k8jP1zGTD1EaSmwtZFXpWP2itMrDC7c8CIEJx6PHInwVK5u9xllNTPHUtREXMycDbehIg37lG00m_Rwp0Rj49vIYVH15o-kTbTHSvwQss-m2-OOwUJvap4KuJHq47b-piEDTqe3oQYJdslTlm-vzqhkECv2d8ZbIECgvh_G-KQht-fcTJoln5N2M5pjhcsCkVbRlLIiNYrPHEuAcqlwBGGW0QQyWDujliyM5O-dQXi0uFi3lOBzLu64eKi3V_88KCL8nStJq4qZPX4_r4SHkSbZcZbTeL93QYHipqZ_Y_u7J_JC74HqOwR3Q5V6gTQJhgu65u6p2YgN8BLSp9WLob5YLoesPbEVev3Cqsp-JNcnuALUHn0wBApn08N_QMW_9eiahU_8DUm9hvzfwDmUiLHglcg-DfR0J1joG2MH6C9Go8zsr9TC68sV88UodVbKw_Wuyzng7yst-l8LJvQkn0oi4IUn2Hu3dX-yrqRh6SKmHFI_P8qA9QF0jKEegXYGynT04dsZxeTuGmPPUoojGDo1zwEbbqUmS9ynDSRmy5c8tyVp2JdnC2Nk",
									"type": "string"
								}
							]
						},
						"method": "GET",
						"header": [
							{
								"key": "Content-Type",
								"value": "application/json",
								"type": "text"
							},
							{
								"key": "Accept",
								"value": "application/json",
								"type": "text"
							},
							{
								"key": "Content-Type",
								"value": "application/json",
								"type": "text"
							},
							{
								"key": "Accept",
								"value": "application/json",
								"type": "text"
							}
						],
						"body": {
							"mode": "raw",
							"raw": ""
						},
						"url": {
							"raw": "{{host}}/api/os/process?option=-aux",
							"host": [
								"{{host}}"
							],
							"path": [
								"api",
								"os",
								"process"
							],
							"query": [
								{
									"key": "option",
									"value": "-aux"
								}
							]
						}
					},
					"response": []
				},
				{
					"name": "Create Dir",
					"request": {
						"auth": {
							"type": "bearer",
							"bearer": [
								{
									"key": "token",
									"value": "eyJ0eXAiOiJKV1QiLCJhbGciOiJSUzI1NiJ9.eyJhdWQiOiI5M2FiZTEyOS1lOTE2LTRiMTctODgyYS01MzFhZWZmMTY4Y2YiLCJqdGkiOiI1OWIyNGM2OGFlNGJiOWI1Zjk1OTgzYjUwZjA3ZDg1ZTI2ODU0YjUyYjdmYjJmYmU4MTRiM2Q5NzRlYTRjMTMyMDg0ZGViYTI5ZDQxOTAzNCIsImlhdCI6MTYyMzY2NDgyMi42NDEwMDQsIm5iZiI6MTYyMzY2NDgyMi42NDEwMSwiZXhwIjoxNjM5NDc2MDIyLjQ3MTE5Miwic3ViIjoiMSIsInNjb3BlcyI6WyJjcmVhdGUiLCJ1cGRhdGUiLCJzaG93IiwiZGVsZXRlIl19.TtqybEznyN3s310496RzthUA7kSY0TadIcgKSr8hoBFaF1pPGZnH21zBd7KWAq7hmkASmaujtlbCJ872IjFVKUcWlxM257r1CwFZYqsPnjUnlB-I-zB7k8jP1zGTD1EaSmwtZFXpWP2itMrDC7c8CIEJx6PHInwVK5u9xllNTPHUtREXMycDbehIg37lG00m_Rwp0Rj49vIYVH15o-kTbTHSvwQss-m2-OOwUJvap4KuJHq47b-piEDTqe3oQYJdslTlm-vzqhkECv2d8ZbIECgvh_G-KQht-fcTJoln5N2M5pjhcsCkVbRlLIiNYrPHEuAcqlwBGGW0QQyWDujliyM5O-dQXi0uFi3lOBzLu64eKi3V_88KCL8nStJq4qZPX4_r4SHkSbZcZbTeL93QYHipqZ_Y_u7J_JC74HqOwR3Q5V6gTQJhgu65u6p2YgN8BLSp9WLob5YLoesPbEVev3Cqsp-JNcnuALUHn0wBApn08N_QMW_9eiahU_8DUm9hvzfwDmUiLHglcg-DfR0J1joG2MH6C9Go8zsr9TC68sV88UodVbKw_Wuyzng7yst-l8LJvQkn0oi4IUn2Hu3dX-yrqRh6SKmHFI_P8qA9QF0jKEegXYGynT04dsZxeTuGmPPUoojGDo1zwEbbqUmS9ynDSRmy5c8tyVp2JdnC2Nk",
									"type": "string"
								}
							]
						},
						"method": "POST",
						"header": [
							{
								"key": "Content-Type",
								"value": "application/json",
								"type": "text"
							},
							{
								"key": "Accept",
								"value": "application/json",
								"type": "text"
							},
							{
								"key": "Content-Type",
								"value": "application/json",
								"type": "text"
							},
							{
								"key": "Accept",
								"value": "application/json",
								"type": "text"
							}
						],
						"body": {
							"mode": "formdata",
							"formdata": [
								{
									"key": "name",
									"value": "test",
									"type": "text"
								}
							]
						},
						"url": {
							"raw": "{{host}}/api/os/directory",
							"host": [
								"{{host}}"
							],
							"path": [
								"api",
								"os",
								"directory"
							]
						}
					},
					"response": []
				},
				{
					"name": "Index Dir",
					"protocolProfileBehavior": {
						"disableBodyPruning": true
					},
					"request": {
						"auth": {
							"type": "bearer",
							"bearer": [
								{
									"key": "token",
									"value": "eyJ0eXAiOiJKV1QiLCJhbGciOiJSUzI1NiJ9.eyJhdWQiOiI5M2FiZTEyOS1lOTE2LTRiMTctODgyYS01MzFhZWZmMTY4Y2YiLCJqdGkiOiI1OWIyNGM2OGFlNGJiOWI1Zjk1OTgzYjUwZjA3ZDg1ZTI2ODU0YjUyYjdmYjJmYmU4MTRiM2Q5NzRlYTRjMTMyMDg0ZGViYTI5ZDQxOTAzNCIsImlhdCI6MTYyMzY2NDgyMi42NDEwMDQsIm5iZiI6MTYyMzY2NDgyMi42NDEwMSwiZXhwIjoxNjM5NDc2MDIyLjQ3MTE5Miwic3ViIjoiMSIsInNjb3BlcyI6WyJjcmVhdGUiLCJ1cGRhdGUiLCJzaG93IiwiZGVsZXRlIl19.TtqybEznyN3s310496RzthUA7kSY0TadIcgKSr8hoBFaF1pPGZnH21zBd7KWAq7hmkASmaujtlbCJ872IjFVKUcWlxM257r1CwFZYqsPnjUnlB-I-zB7k8jP1zGTD1EaSmwtZFXpWP2itMrDC7c8CIEJx6PHInwVK5u9xllNTPHUtREXMycDbehIg37lG00m_Rwp0Rj49vIYVH15o-kTbTHSvwQss-m2-OOwUJvap4KuJHq47b-piEDTqe3oQYJdslTlm-vzqhkECv2d8ZbIECgvh_G-KQht-fcTJoln5N2M5pjhcsCkVbRlLIiNYrPHEuAcqlwBGGW0QQyWDujliyM5O-dQXi0uFi3lOBzLu64eKi3V_88KCL8nStJq4qZPX4_r4SHkSbZcZbTeL93QYHipqZ_Y_u7J_JC74HqOwR3Q5V6gTQJhgu65u6p2YgN8BLSp9WLob5YLoesPbEVev3Cqsp-JNcnuALUHn0wBApn08N_QMW_9eiahU_8DUm9hvzfwDmUiLHglcg-DfR0J1joG2MH6C9Go8zsr9TC68sV88UodVbKw_Wuyzng7yst-l8LJvQkn0oi4IUn2Hu3dX-yrqRh6SKmHFI_P8qA9QF0jKEegXYGynT04dsZxeTuGmPPUoojGDo1zwEbbqUmS9ynDSRmy5c8tyVp2JdnC2Nk",
									"type": "string"
								}
							]
						},
						"method": "GET",
						"header": [
							{
								"key": "Content-Type",
								"value": "application/json",
								"type": "text"
							},
							{
								"key": "Accept",
								"value": "application/json",
								"type": "text"
							},
							{
								"key": "Content-Type",
								"value": "application/json",
								"type": "text"
							},
							{
								"key": "Accept",
								"value": "application/json",
								"type": "text"
							}
						],
						"body": {
							"mode": "formdata",
							"formdata": [
								{
									"key": "name",
									"value": "test",
									"type": "text"
								}
							]
						},
						"url": {
							"raw": "{{host}}/api/os/directory",
							"host": [
								"{{host}}"
							],
							"path": [
								"api",
								"os",
								"directory"
							]
						}
					},
					"response": []
				},
				{
					"name": "Create File",
					"request": {
						"auth": {
							"type": "bearer",
							"bearer": [
								{
									"key": "token",
									"value": "eyJ0eXAiOiJKV1QiLCJhbGciOiJSUzI1NiJ9.eyJhdWQiOiI5M2FiZTEyOS1lOTE2LTRiMTctODgyYS01MzFhZWZmMTY4Y2YiLCJqdGkiOiI1OWIyNGM2OGFlNGJiOWI1Zjk1OTgzYjUwZjA3ZDg1ZTI2ODU0YjUyYjdmYjJmYmU4MTRiM2Q5NzRlYTRjMTMyMDg0ZGViYTI5ZDQxOTAzNCIsImlhdCI6MTYyMzY2NDgyMi42NDEwMDQsIm5iZiI6MTYyMzY2NDgyMi42NDEwMSwiZXhwIjoxNjM5NDc2MDIyLjQ3MTE5Miwic3ViIjoiMSIsInNjb3BlcyI6WyJjcmVhdGUiLCJ1cGRhdGUiLCJzaG93IiwiZGVsZXRlIl19.TtqybEznyN3s310496RzthUA7kSY0TadIcgKSr8hoBFaF1pPGZnH21zBd7KWAq7hmkASmaujtlbCJ872IjFVKUcWlxM257r1CwFZYqsPnjUnlB-I-zB7k8jP1zGTD1EaSmwtZFXpWP2itMrDC7c8CIEJx6PHInwVK5u9xllNTPHUtREXMycDbehIg37lG00m_Rwp0Rj49vIYVH15o-kTbTHSvwQss-m2-OOwUJvap4KuJHq47b-piEDTqe3oQYJdslTlm-vzqhkECv2d8ZbIECgvh_G-KQht-fcTJoln5N2M5pjhcsCkVbRlLIiNYrPHEuAcqlwBGGW0QQyWDujliyM5O-dQXi0uFi3lOBzLu64eKi3V_88KCL8nStJq4qZPX4_r4SHkSbZcZbTeL93QYHipqZ_Y_u7J_JC74HqOwR3Q5V6gTQJhgu65u6p2YgN8BLSp9WLob5YLoesPbEVev3Cqsp-JNcnuALUHn0wBApn08N_QMW_9eiahU_8DUm9hvzfwDmUiLHglcg-DfR0J1joG2MH6C9Go8zsr9TC68sV88UodVbKw_Wuyzng7yst-l8LJvQkn0oi4IUn2Hu3dX-yrqRh6SKmHFI_P8qA9QF0jKEegXYGynT04dsZxeTuGmPPUoojGDo1zwEbbqUmS9ynDSRmy5c8tyVp2JdnC2Nk",
									"type": "string"
								}
							]
						},
						"method": "POST",
						"header": [
							{
								"key": "Content-Type",
								"value": "application/json",
								"type": "text"
							},
							{
								"key": "Accept",
								"value": "application/json",
								"type": "text"
							},
							{
								"key": "Content-Type",
								"value": "application/json",
								"type": "text"
							},
							{
								"key": "Accept",
								"value": "application/json",
								"type": "text"
							}
						],
						"body": {
							"mode": "formdata",
							"formdata": [
								{
									"key": "name",
									"value": "test.txt",
									"type": "text"
								},
								{
									"key": "type",
									"value": "txt",
									"type": "text"
								}
							]
						},
						"url": {
							"raw": "{{host}}/api/os/file",
							"host": [
								"{{host}}"
							],
							"path": [
								"api",
								"os",
								"file"
							]
						}
					},
					"response": []
				},
				{
					"name": "Index File",
					"protocolProfileBehavior": {
						"disableBodyPruning": true
					},
					"request": {
						"auth": {
							"type": "bearer",
							"bearer": [
								{
									"key": "token",
									"value": "eyJ0eXAiOiJKV1QiLCJhbGciOiJSUzI1NiJ9.eyJhdWQiOiI5M2FiZTEyOS1lOTE2LTRiMTctODgyYS01MzFhZWZmMTY4Y2YiLCJqdGkiOiI1OWIyNGM2OGFlNGJiOWI1Zjk1OTgzYjUwZjA3ZDg1ZTI2ODU0YjUyYjdmYjJmYmU4MTRiM2Q5NzRlYTRjMTMyMDg0ZGViYTI5ZDQxOTAzNCIsImlhdCI6MTYyMzY2NDgyMi42NDEwMDQsIm5iZiI6MTYyMzY2NDgyMi42NDEwMSwiZXhwIjoxNjM5NDc2MDIyLjQ3MTE5Miwic3ViIjoiMSIsInNjb3BlcyI6WyJjcmVhdGUiLCJ1cGRhdGUiLCJzaG93IiwiZGVsZXRlIl19.TtqybEznyN3s310496RzthUA7kSY0TadIcgKSr8hoBFaF1pPGZnH21zBd7KWAq7hmkASmaujtlbCJ872IjFVKUcWlxM257r1CwFZYqsPnjUnlB-I-zB7k8jP1zGTD1EaSmwtZFXpWP2itMrDC7c8CIEJx6PHInwVK5u9xllNTPHUtREXMycDbehIg37lG00m_Rwp0Rj49vIYVH15o-kTbTHSvwQss-m2-OOwUJvap4KuJHq47b-piEDTqe3oQYJdslTlm-vzqhkECv2d8ZbIECgvh_G-KQht-fcTJoln5N2M5pjhcsCkVbRlLIiNYrPHEuAcqlwBGGW0QQyWDujliyM5O-dQXi0uFi3lOBzLu64eKi3V_88KCL8nStJq4qZPX4_r4SHkSbZcZbTeL93QYHipqZ_Y_u7J_JC74HqOwR3Q5V6gTQJhgu65u6p2YgN8BLSp9WLob5YLoesPbEVev3Cqsp-JNcnuALUHn0wBApn08N_QMW_9eiahU_8DUm9hvzfwDmUiLHglcg-DfR0J1joG2MH6C9Go8zsr9TC68sV88UodVbKw_Wuyzng7yst-l8LJvQkn0oi4IUn2Hu3dX-yrqRh6SKmHFI_P8qA9QF0jKEegXYGynT04dsZxeTuGmPPUoojGDo1zwEbbqUmS9ynDSRmy5c8tyVp2JdnC2Nk",
									"type": "string"
								}
							]
						},
						"method": "GET",
						"header": [
							{
								"key": "Content-Type",
								"value": "application/json",
								"type": "text"
							},
							{
								"key": "Accept",
								"value": "application/json",
								"type": "text"
							},
							{
								"key": "Content-Type",
								"value": "application/json",
								"type": "text"
							},
							{
								"key": "Accept",
								"value": "application/json",
								"type": "text"
							}
						],
						"body": {
							"mode": "formdata",
							"formdata": [
								{
									"key": "name",
									"value": "test",
									"type": "text"
								}
							]
						},
						"url": {
							"raw": "{{host}}/api/os/file",
							"host": [
								"{{host}}"
							],
							"path": [
								"api",
								"os",
								"file"
							]
						}
					},
					"response": []
				}
			]
		}
	]
}